GPL-3.0 837
Apache-2.0 490
GPL-3.0+ 263
MIT 244
GPL-2.0 124
GPL-2.0+ 86
NewBSD 37
GPL 25
AGPL-3.0 18
MPL-2.0 17
FreeBSD 14
LGPL 14
WTFPL 14
PublicDomain 12
AGPL-3.0+ 10
ISC 8
AGPL 6
BSD 6
LGPL-3.0 5
Unlicense 5
Artistic2 3
Beerware 2
CC-BY-4.0 2
GPL,Artistic 2
LGPL-2.1 2
MirOS 2
Zlib 2
Apache 1
Apache-2.0,GPL-3.0 1
Apache2,CC-BY-SA-3.0 1
BSD,Apache2 1
BSD-3 1
CC-BY-SA 1
CC-BY-SA-4.0 1
CC0-1.0 1
CMU 1
EPL 1
EUPL 1
Expat 1
Fair License 1
Free Beer License 1
GNUFDL 1
GNUFDL,CC-BY-SA 1
GPL,MPL 1
GPL-3.0,Apache-2.0,LGPL 1
GPL-3.0,CC-BY-SA-3.0 1
GPL-3.0,CC-BY-SA-4.0 1
GPL-3.0,NewBSD 1
LGPL-2.1+ 1
LGPL-2.1+,CC-BY-SA-3.0 1
LGPL-3.0,CC-BY-SA-4.0 1
MIT,GPL-2.0 1
MPL-1.1 1
Mega Limited Terms of Service 1
MissingLicense 1
NCSA 1
NYSLv0.9982 1
NetBSD 1
SimplifiedBSD 1
Unlicense,Apache2 1
X11 1
XSkat 1
